%!PS-Adobe-3.0 EPSF-3.0 
%%BoundingBox: 0 0 276 242
%%Pages: 0
%%Creator: Sun Microsystems, Inc.
%%Title: none
%%CreationDate: none
%%LanguageLevel: 2
%%EndComments
%%BeginProlog
%%BeginResource: procset SDRes-Prolog 1.0 0
/b4_inc_state save def
/dict_count countdictstack def
/op_count count 1 sub def
userdict begin
0 setgray 0 setlinecap 1 setlinewidth 0 setlinejoin 10 setmiterlimit[] 0 setdash newpath
/languagelevel where {pop languagelevel 1 ne {false setstrokeadjust false setoverprint} if} if
/bdef {bind def} bind def
/c {setrgbcolor} bdef
/l {neg lineto} bdef
/rl {neg rlineto} bdef
/lc {setlinecap} bdef
/lj {setlinejoin} bdef
/lw {setlinewidth} bdef
/ml {setmiterlimit} bdef
/ld {setdash} bdef
/m {neg moveto} bdef
/ct {6 2 roll neg 6 2 roll neg 6 2 roll neg curveto} bdef
/r {rotate} bdef
/t {neg translate} bdef
/s {scale} bdef
/sw {show} bdef
/gs {gsave} bdef
/gr {grestore} bdef
/f {findfont dup length dict begin
{1 index /FID ne {def} {pop pop} ifelse} forall /Encoding ISOLatin1Encoding def
currentdict end /NFont exch definefont pop /NFont findfont} bdef
/p {closepath} bdef
/sf {scalefont setfont} bdef
/ef {eofill}bdef
/pc {closepath stroke}bdef
/ps {stroke}bdef
/pum {matrix currentmatrix}bdef
/pom {setmatrix}bdef
/bs {/aString exch def /nXOfs exch def /nWidth exch def currentpoint nXOfs 0 rmoveto pum nWidth aString stringwidth pop div 1 scale aString show pom moveto} bdef
%%EndResource
%%EndProlog
%%BeginSetup
%%EndSetup
%%Page: 1 1
%%BeginPageSetup
%%EndPageSetup
pum
0.02831 0.02835 s 
0 -8535 t
/tm matrix currentmatrix def
tm setmatrix
-6013 -5168 t 
1 1 s 
1.000 1.000 1.000 c 10906 7858 m  6334 7858 l  6334 6842 l  15478 6842 l 
15478 7858 l  10906 7858 l  p ef
0 lw 1 lj 0.003 0.003 0.003 c 10906 7858 m  6334 7858 l  6334 6842 l  15478 6842 l 
15478 7858 l  10906 7858 l  pc
pum
6749 7571 t
0.230 0.226 0.210 c 394 -121 m  394 -103 391 -86 384 -70 ct 377 -55 366 -41 351 -30 ct 
336 -19 317 -10 294 -3 ct 272 3 245 6 214 6 ct 160 6 117 -4 87 -23 ct 56 -42 37 -69 29 -105 ct 
86 -117 l  89 -105 94 -95 100 -86 ct 106 -76 114 -68 124 -61 ct 134 -55 147 -50 162 -46 ct 
177 -42 195 -40 216 -40 ct 234 -40 250 -42 264 -45 ct 279 -48 292 -52 302 -59 ct 
313 -65 321 -73 327 -83 ct 333 -92 336 -104 336 -118 ct 336 -132 333 -144 326 -153 ct 
320 -161 310 -169 299 -175 ct 287 -180 273 -185 256 -189 ct 240 -193 222 -197 202 -202 ct 
190 -205 178 -208 165 -211 ct 153 -214 141 -218 130 -222 ct 119 -227 108 -232 98 -238 ct 
88 -244 80 -251 73 -259 ct 65 -268 60 -278 56 -289 ct 51 -300 49 -313 49 -327 ct 
49 -348 53 -365 62 -380 ct 70 -395 82 -407 97 -417 ct 112 -426 129 -433 149 -437 ct 
170 -442 192 -444 215 -444 ct 242 -444 265 -442 285 -438 ct 304 -433 320 -427 333 -419 ct 
347 -410 357 -400 365 -387 ct 373 -375 379 -360 384 -343 ct 326 -333 l  323 -344 319 -353 313 -361 ct 
308 -370 301 -377 292 -382 ct 283 -388 272 -392 259 -395 ct 247 -398 232 -399 215 -399 ct 
194 -399 177 -397 164 -394 ct 150 -390 139 -385 130 -379 ct 122 -373 116 -366 112 -357 ct 
109 -349 107 -340 107 -330 ct 107 -317 110 -306 117 -298 ct 123 -290 132 -283 143 -277 ct 
154 -271 167 -267 182 -263 ct 197 -259 212 -256 229 -252 ct 242 -249 256 -246 269 -242 ct 
282 -239 295 -235 307 -231 ct 319 -226 331 -221 342 -215 ct 352 -209 361 -202 369 -193 ct 
377 -185 383 -174 388 -163 ct 392 -151 394 -137 394 -121 ct p ef
595 -2 m  586 0 578 2 569 3 ct 560 4 550 5 538 5 ct 494 5 471 -20 471 -71 ct 471 -295 l 
433 -295 l  433 -336 l  474 -336 l  490 -411 l  527 -411 l  527 -336 l 
589 -336 l  589 -295 l  527 -295 l  527 -83 l  527 -67 530 -56 535 -49 ct 
540 -43 550 -39 563 -39 ct 568 -39 573 -40 578 -41 ct 583 -41 589 -42 595 -44 ct 
595 -2 l  p ef
645 0 m  645 -258 l  645 -265 645 -272 645 -279 ct 645 -287 645 -294 644 -300 ct 
644 -307 644 -314 644 -320 ct 644 -326 643 -331 643 -336 ct 696 -336 l  696 -331 696 -326 697 -320 ct 
697 -313 697 -307 698 -301 ct 698 -294 698 -288 698 -282 ct 698 -276 698 -271 698 -267 ct 
700 -267 l  704 -280 708 -291 712 -301 ct 717 -310 722 -318 728 -324 ct 734 -330 741 -335 749 -338 ct 
757 -341 768 -342 779 -342 ct 784 -342 788 -342 792 -341 ct 796 -340 800 -340 802 -339 ct 
802 -288 l  798 -289 794 -290 789 -290 ct 784 -291 778 -291 772 -291 ct 759 -291 748 -288 739 -282 ct 
730 -276 723 -268 717 -258 ct 712 -248 708 -236 705 -221 ct 702 -207 701 -192 701 -175 ct 
701 0 l  645 0 l  p ef
855 -407 m  855 -460 l  911 -460 l  911 -407 l  855 -407 l  p
855 1 m  855 -335 l  911 -335 l  911 1 l  855 1 l  p ef
1279 -170 m  1279 -144 1277 -121 1273 -99 ct 1269 -78 1262 -59 1253 -43 ct 1243 -28 1230 -16 1215 -7 ct 
1199 2 1179 6 1156 6 ct 1132 6 1111 2 1093 -7 ct 1075 -17 1061 -31 1052 -52 ct 
1050 -52 l  1051 -52 1051 -50 1051 -47 ct 1051 -43 1051 -39 1051 -34 ct 1051 -29 1051 -24 1051 -17 ct 
1052 -11 1052 -5 1052 1 ct 1052 132 l  996 132 l  996 -267 l  996 -275 996 -283 996 -290 ct 
996 -298 995 -305 995 -311 ct 995 -317 995 -322 995 -326 ct 994 -331 994 -334 994 -336 ct 
1048 -336 l  1048 -335 1048 -333 1049 -329 ct 1049 -326 1049 -321 1050 -316 ct 
1050 -311 1050 -305 1051 -299 ct 1051 -293 1051 -287 1051 -282 ct 1052 -282 l 
1057 -293 1063 -302 1070 -310 ct 1077 -317 1084 -323 1093 -328 ct 1101 -333 1110 -337 1121 -339 ct 
1131 -341 1143 -342 1156 -342 ct 1179 -342 1199 -338 1215 -330 ct 1230 -321 1243 -310 1253 -295 ct 
1262 -280 1269 -261 1273 -240 ct 1277 -219 1279 -195 1279 -170 ct p
1221 -168 m  1221 -189 1220 -207 1217 -224 ct 1215 -240 1210 -253 1204 -265 ct 
1198 -276 1190 -284 1180 -290 ct 1170 -296 1157 -299 1142 -299 ct 1129 -299 1118 -297 1107 -294 ct 
1096 -290 1086 -283 1078 -273 ct 1070 -263 1063 -250 1059 -232 ct 1054 -215 1052 -192 1052 -164 ct 
1052 -140 1054 -120 1057 -104 ct 1061 -87 1067 -74 1075 -64 ct 1082 -53 1092 -46 1103 -42 ct 
1114 -37 1127 -35 1141 -35 ct 1157 -35 1170 -38 1180 -44 ct 1190 -50 1198 -59 1204 -70 ct 
1210 -82 1215 -95 1217 -112 ct 1220 -128 1221 -147 1221 -168 ct p ef
1346 -407 m  1346 -460 l  1402 -460 l  1402 -407 l  1346 -407 l  p
1346 1 m  1346 -335 l  1402 -335 l  1402 1 l  1346 1 l  p ef
1700 0 m  1700 -213 l  1700 -229 1699 -243 1696 -254 ct 1694 -265 1690 -274 1685 -280 ct 
1679 -287 1672 -292 1663 -295 ct 1655 -297 1644 -299 1631 -299 ct 1617 -299 1605 -297 1595 -292 ct 
1584 -287 1575 -281 1568 -272 ct 1560 -263 1554 -252 1550 -239 ct 1546 -226 1544 -211 1544 -195 ct 
1544 0 l  1488 0 l  1488 -264 l  1488 -271 1488 -279 1488 -286 ct 1488 -294 1488 -301 1487 -308 ct 
1487 -315 1487 -321 1487 -326 ct 1487 -331 1486 -334 1486 -336 ct 1539 -336 l 
1539 -335 1539 -332 1540 -327 ct 1540 -323 1540 -318 1540 -312 ct 1541 -306 1541 -300 1541 -294 ct 
1541 -288 1541 -283 1541 -278 ct 1542 -278 l  1548 -288 1554 -297 1560 -305 ct 
1566 -313 1574 -319 1582 -325 ct 1591 -330 1600 -335 1611 -338 ct 1622 -341 1635 -342 1650 -342 ct 
1668 -342 1684 -340 1698 -335 ct 1711 -331 1722 -324 1731 -314 ct 1739 -305 1746 -292 1750 -277 ct 
1754 -262 1756 -244 1756 -224 ct 1756 0 l  1700 0 l  p ef
1965 132 m  1946 132 1929 130 1914 126 ct 1899 122 1886 117 1876 109 ct 1865 102 1856 93 1850 83 ct 
1843 73 1839 61 1836 49 ct 1892 41 l  1895 56 1904 68 1916 77 ct 1929 85 1946 89 1966 89 ct 
1979 89 1991 88 2001 84 ct 2011 81 2020 75 2027 67 ct 2034 59 2040 49 2044 37 ct 
2048 25 2050 9 2050 -8 ct 2050 -63 l  2049 -63 l  2045 -54 2040 -46 2034 -38 ct 
2028 -30 2020 -24 2012 -18 ct 2003 -12 1993 -7 1981 -3 ct 1969 0 1956 2 1941 2 ct 
1920 2 1902 -1 1887 -8 ct 1871 -16 1859 -26 1849 -41 ct 1840 -55 1833 -73 1828 -94 ct 
1824 -115 1822 -139 1822 -167 ct 1822 -194 1824 -218 1828 -240 ct 1833 -261 1840 -280 1850 -295 ct 
1860 -310 1873 -321 1889 -329 ct 1905 -337 1925 -341 1948 -341 ct 1971 -341 1992 -336 2009 -325 ct 
2027 -314 2040 -298 2050 -278 ct 2050 -278 l  2050 -284 2051 -289 2051 -296 ct 
2051 -302 2052 -308 2052 -314 ct 2052 -320 2053 -324 2053 -329 ct 2053 -333 2054 -335 2054 -336 ct 
2107 -336 l  2107 -334 2107 -331 2107 -326 ct 2106 -322 2106 -316 2106 -310 ct 
2106 -304 2106 -297 2106 -290 ct 2105 -282 2105 -274 2105 -266 ct 2105 -10 l 
2105 37 2094 73 2071 96 ct 2048 120 2012 132 1965 132 ct p
2050 -168 m  2050 -191 2047 -211 2042 -228 ct 2037 -245 2031 -258 2022 -269 ct 
2014 -279 2005 -287 1994 -292 ct 1983 -297 1972 -299 1961 -299 ct 1947 -299 1935 -297 1924 -292 ct 
1914 -287 1906 -279 1899 -269 ct 1892 -258 1887 -244 1884 -228 ct 1881 -211 1879 -191 1879 -168 ct 
1879 -144 1881 -123 1884 -107 ct 1887 -91 1892 -77 1899 -67 ct 1905 -57 1914 -50 1924 -46 ct 
1934 -41 1946 -39 1960 -39 ct 1971 -39 1982 -41 1993 -46 ct 2004 -51 2013 -58 2022 -69 ct 
2030 -79 2037 -92 2042 -109 ct 2047 -125 2050 -145 2050 -168 ct p ef
2694 4 m  2674 4 2657 0 2642 -7 ct 2627 -13 2613 -23 2602 -36 ct 2595 -30 2588 -25 2580 -20 ct 
2573 -15 2564 -11 2554 -7 ct 2545 -3 2534 0 2523 2 ct 2512 5 2499 6 2486 6 ct 2462 6 2441 3 2423 -3 ct 
2406 -10 2391 -18 2380 -29 ct 2368 -40 2360 -53 2355 -67 ct 2349 -82 2346 -98 2346 -115 ct 
2346 -132 2349 -146 2354 -160 ct 2360 -173 2367 -185 2376 -196 ct 2386 -207 2397 -217 2410 -225 ct 
2423 -234 2437 -242 2453 -248 ct 2449 -255 2446 -263 2443 -271 ct 2440 -279 2437 -287 2435 -295 ct 
2432 -303 2431 -311 2429 -319 ct 2428 -327 2428 -335 2428 -342 ct 2428 -356 2430 -369 2434 -381 ct 
2438 -392 2444 -403 2453 -412 ct 2462 -420 2473 -427 2487 -432 ct 2501 -437 2517 -440 2536 -440 ct 
2551 -440 2565 -438 2578 -434 ct 2591 -430 2602 -424 2611 -417 ct 2620 -410 2628 -400 2633 -389 ct 
2638 -378 2641 -366 2641 -352 ct 2641 -336 2637 -322 2630 -310 ct 2624 -298 2614 -287 2603 -278 ct 
2591 -268 2578 -260 2562 -252 ct 2547 -244 2531 -237 2514 -230 ct 2527 -206 2541 -184 2556 -163 ct 
2571 -143 2587 -122 2605 -102 ct 2617 -121 2628 -140 2636 -161 ct 2644 -182 2652 -204 2658 -229 ct 
2703 -216 l  2695 -187 2686 -161 2675 -138 ct 2664 -114 2651 -92 2637 -70 ct 
2648 -59 2659 -51 2670 -47 ct 2681 -42 2691 -40 2701 -40 ct 2708 -40 2714 -40 2720 -41 ct 
2727 -42 2732 -43 2738 -45 ct 2738 -3 l  2732 -1 2725 1 2717 2 ct 2710 3 2702 4 2694 4 ct 
p
2593 -352 m  2593 -359 2592 -366 2589 -373 ct 2586 -379 2583 -384 2578 -389 ct 
2573 -393 2567 -397 2559 -399 ct 2552 -401 2544 -402 2536 -402 ct 2516 -402 2501 -397 2491 -386 ct 
2480 -376 2475 -361 2475 -342 ct 2475 -330 2477 -317 2481 -304 ct 2485 -290 2489 -278 2495 -266 ct 
2509 -272 2521 -277 2533 -283 ct 2545 -289 2556 -295 2565 -302 ct 2573 -308 2581 -316 2586 -324 ct 
2591 -332 2593 -341 2593 -352 ct p
2571 -67 m  2552 -89 2534 -112 2517 -136 ct 2501 -159 2485 -184 2472 -209 ct 
2448 -199 2430 -187 2417 -171 ct 2405 -156 2398 -138 2398 -116 ct 2398 -105 2400 -94 2404 -84 ct 
2407 -74 2413 -66 2420 -58 ct 2428 -51 2437 -45 2448 -41 ct 2460 -37 2473 -35 2488 -35 ct 
2497 -35 2506 -36 2514 -38 ct 2522 -40 2530 -42 2537 -45 ct 2544 -48 2550 -52 2556 -56 ct 
2561 -60 2566 -63 2571 -67 ct p ef
3315 -305 m  3315 -286 3312 -269 3306 -252 ct 3299 -236 3290 -221 3277 -209 ct 
3265 -197 3249 -188 3230 -181 ct 3212 -174 3190 -170 3165 -170 ct 3036 -170 l 
3036 1 l  2977 1 l  2977 -437 l  3161 -437 l  3187 -437 3209 -434 3229 -428 ct 
3248 -421 3264 -412 3277 -401 ct 3289 -389 3299 -375 3305 -359 ct 3312 -343 3315 -325 3315 -305 ct 
p
3256 -305 m  3256 -332 3247 -354 3230 -368 ct 3213 -382 3188 -390 3154 -390 ct 
3036 -390 l  3036 -217 l  3156 -217 l  3190 -217 3215 -224 3231 -240 ct 3248 -255 3256 -276 3256 -305 ct 
p ef
3477 6 m  3444 6 3418 -3 3401 -21 ct 3384 -39 3376 -63 3376 -94 ct 3376 -117 3380 -135 3389 -149 ct 
3397 -163 3408 -174 3421 -183 ct 3435 -191 3450 -196 3468 -199 ct 3485 -203 3503 -204 3521 -204 ct 
3596 -204 l  3596 -223 l  3596 -237 3595 -248 3592 -258 ct 3589 -268 3584 -276 3578 -282 ct 
3572 -288 3565 -292 3556 -295 ct 3547 -298 3536 -299 3524 -299 ct 3513 -299 3504 -299 3495 -297 ct 
3486 -296 3479 -293 3472 -289 ct 3466 -285 3461 -279 3457 -272 ct 3453 -265 3450 -257 3449 -246 ct 
3391 -251 l  3393 -265 3397 -277 3403 -288 ct 3408 -299 3417 -309 3427 -317 ct 
3438 -325 3451 -331 3467 -335 ct 3483 -340 3503 -342 3525 -342 ct 3568 -342 3599 -332 3621 -313 ct 
3642 -294 3653 -266 3653 -229 ct 3653 -85 l  3653 -68 3655 -55 3659 -47 ct 3663 -39 3672 -35 3684 -35 ct 
3687 -35 3690 -35 3693 -35 ct 3696 -36 3699 -36 3702 -37 ct 3702 -2 l  3695 0 3688 1 3681 2 ct 
3674 3 3667 3 3659 3 ct 3649 3 3639 2 3632 -1 ct 3624 -4 3618 -8 3613 -14 ct 3609 -20 3605 -27 3603 -35 ct 
3600 -43 3599 -53 3598 -64 ct 3596 -64 l  3590 -54 3584 -44 3576 -35 ct 3569 -27 3561 -19 3551 -13 ct 
3542 -7 3531 -2 3519 1 ct 3507 4 3493 6 3477 6 ct p
3490 -36 m  3508 -36 3523 -39 3537 -46 ct 3550 -52 3561 -60 3570 -70 ct 3579 -80 3585 -91 3590 -103 ct 
3594 -115 3596 -127 3596 -138 ct 3596 -165 l  3535 -165 l  3521 -165 3508 -164 3496 -162 ct 
3484 -161 3473 -157 3464 -152 ct 3454 -147 3447 -139 3442 -130 ct 3436 -121 3433 -108 3433 -93 ct 
3433 -75 3438 -61 3448 -51 ct 3458 -41 3472 -36 3490 -36 ct p ef
3744 0 m  3744 -258 l  3744 -265 3744 -272 3744 -279 ct 3744 -287 3744 -294 3743 -300 ct 
3743 -307 3743 -314 3743 -320 ct 3743 -326 3742 -331 3742 -336 ct 3795 -336 l 
3795 -331 3795 -326 3796 -320 ct 3796 -313 3796 -307 3797 -301 ct 3797 -294 3797 -288 3797 -282 ct 
3797 -276 3797 -271 3797 -267 ct 3799 -267 l  3803 -280 3807 -291 3811 -301 ct 
3816 -310 3821 -318 3827 -324 ct 3833 -330 3840 -335 3848 -338 ct 3856 -341 3867 -342 3878 -342 ct 
3883 -342 3887 -342 3891 -341 ct 3895 -340 3899 -340 3901 -339 ct 3901 -288 l 
3897 -289 3893 -290 3888 -290 ct 3883 -291 3877 -291 3871 -291 ct 3858 -291 3847 -288 3838 -282 ct 
3829 -276 3822 -268 3816 -258 ct 3811 -248 3807 -236 3804 -221 ct 3801 -207 3800 -192 3800 -175 ct 
3800 0 l  3744 0 l  p ef
3954 -407 m  3954 -460 l  4010 -460 l  4010 -407 l  3954 -407 l  p
3954 1 m  3954 -335 l  4010 -335 l  4010 1 l  3954 1 l  p ef
4223 -2 m  4214 0 4206 2 4197 3 ct 4188 4 4178 5 4166 5 ct 4122 5 4099 -20 4099 -71 ct 
4099 -295 l  4061 -295 l  4061 -336 l  4102 -336 l  4118 -411 l  4155 -411 l 
4155 -336 l  4217 -336 l  4217 -295 l  4155 -295 l  4155 -83 l  4155 -67 4158 -56 4163 -49 ct 
4168 -43 4178 -39 4191 -39 ct 4196 -39 4201 -40 4206 -41 ct 4211 -41 4217 -42 4223 -44 ct 
4223 -2 l  p ef
4416 -1 m  4408 20 4400 38 4392 54 ct 4384 70 4375 84 4365 96 ct 4355 107 4343 116 4331 122 ct 
4319 128 4304 131 4288 131 ct 4281 131 4275 131 4269 131 ct 4263 131 4256 130 4250 128 ct 
4250 86 l  4254 87 4258 88 4263 88 ct 4268 88 4272 88 4276 88 ct 4292 88 4307 82 4321 70 ct 
4335 57 4348 38 4358 11 ct 4364 -2 l  4231 -336 l  4290 -336 l  4361 -150 l 
4363 -145 4365 -137 4369 -128 ct 4372 -119 4375 -109 4378 -100 ct 4381 -91 4384 -83 4387 -75 ct 
4389 -68 4391 -63 4391 -61 ct 4392 -63 4393 -68 4396 -75 ct 4398 -81 4401 -89 4404 -97 ct 
4407 -105 4410 -114 4413 -122 ct 4416 -131 4419 -138 4421 -144 ct 4486 -336 l 
4545 -336 l  4416 -1 l  p ef
4970 -396 m  4945 -396 4923 -391 4904 -383 ct 4885 -375 4869 -363 4856 -348 ct 
4843 -332 4833 -314 4826 -293 ct 4820 -271 4816 -247 4816 -221 ct 4816 -195 4820 -171 4827 -149 ct 
4834 -127 4844 -108 4858 -92 ct 4871 -77 4887 -64 4907 -56 ct 4926 -47 4948 -43 4972 -43 ct 
4989 -43 5004 -45 5018 -49 ct 5032 -54 5045 -60 5056 -68 ct 5067 -76 5078 -86 5086 -97 ct 
5095 -108 5103 -120 5110 -134 ct 5158 -109 l  5151 -93 5141 -78 5129 -64 ct 
5118 -50 5104 -38 5088 -27 ct 5073 -17 5055 -9 5035 -3 ct 5016 3 4994 6 4969 6 ct 
4934 6 4903 0 4876 -11 ct 4850 -22 4828 -38 4810 -58 ct 4792 -78 4778 -102 4770 -130 ct 
4761 -158 4756 -188 4756 -221 ct 4756 -255 4761 -286 4770 -313 ct 4780 -341 4794 -364 4812 -384 ct 
4830 -403 4852 -418 4878 -428 ct 4905 -439 4935 -444 4969 -444 ct 5015 -444 5054 -435 5086 -417 ct 
5117 -398 5140 -371 5154 -336 ct 5098 -317 l  5094 -327 5089 -337 5082 -347 ct 
5074 -356 5066 -364 5055 -372 ct 5045 -379 5032 -385 5018 -389 ct 5004 -393 4988 -396 4970 -396 ct 
p ef
5508 -168 m  5508 -110 5496 -66 5470 -37 ct 5444 -8 5406 6 5357 6 ct 5334 6 5313 2 5295 -5 ct 
5276 -12 5261 -22 5248 -37 ct 5235 -51 5225 -69 5219 -91 ct 5212 -113 5209 -139 5209 -168 ct 
5209 -284 5259 -342 5359 -342 ct 5385 -342 5408 -339 5426 -331 ct 5445 -324 5461 -313 5473 -299 ct 
5485 -284 5494 -266 5500 -245 ct 5506 -223 5508 -197 5508 -168 ct p
5450 -168 m  5450 -195 5448 -216 5444 -233 ct 5440 -250 5434 -264 5426 -274 ct 
5418 -284 5409 -291 5398 -295 ct 5387 -299 5374 -301 5360 -301 ct 5346 -301 5333 -299 5321 -295 ct 
5310 -290 5300 -283 5292 -273 ct 5284 -263 5278 -249 5274 -232 ct 5269 -215 5267 -194 5267 -168 ct 
5267 -142 5270 -121 5274 -104 ct 5279 -87 5285 -73 5293 -63 ct 5301 -53 5310 -46 5321 -41 ct 
5332 -37 5344 -35 5357 -35 ct 5371 -35 5384 -37 5395 -41 ct 5407 -45 5417 -52 5425 -63 ct 
5433 -73 5439 -86 5443 -104 ct 5448 -121 5450 -142 5450 -168 ct p ef
5771 0 m  5771 -213 l  5771 -229 5770 -243 5768 -254 ct 5766 -265 5762 -274 5758 -280 ct 
5753 -287 5746 -292 5739 -295 ct 5731 -297 5721 -299 5710 -299 ct 5698 -299 5687 -297 5678 -292 ct 
5668 -287 5660 -281 5653 -272 ct 5647 -263 5642 -252 5638 -239 ct 5634 -226 5633 -211 5633 -195 ct 
5633 0 l  5577 0 l  5577 -264 l  5577 -271 5577 -279 5577 -286 ct 5577 -294 5577 -301 5576 -308 ct 
5576 -315 5576 -321 5576 -326 ct 5576 -331 5575 -334 5575 -336 ct 5628 -336 l 
5628 -335 5628 -332 5629 -327 ct 5629 -323 5629 -318 5629 -312 ct 5630 -306 5630 -300 5630 -294 ct 
5630 -288 5630 -283 5630 -278 ct 5631 -278 l  5636 -288 5642 -297 5647 -305 ct 
5653 -313 5660 -319 5668 -325 ct 5675 -330 5684 -335 5694 -338 ct 5704 -341 5716 -342 5729 -342 ct 
5755 -342 5775 -337 5790 -327 ct 5804 -317 5815 -301 5820 -278 ct 5821 -278 l 
5826 -288 5832 -297 5838 -305 ct 5844 -313 5852 -319 5860 -325 ct 5868 -330 5877 -335 5888 -338 ct 
5898 -341 5910 -342 5923 -342 ct 5940 -342 5955 -340 5967 -335 ct 5979 -331 5989 -324 5997 -314 ct 
6005 -305 6011 -292 6015 -277 ct 6018 -262 6020 -244 6020 -224 ct 6020 0 l  5965 0 l 
5965 -213 l  5965 -229 5964 -243 5962 -254 ct 5960 -265 5956 -274 5951 -280 ct 
5947 -287 5940 -292 5932 -295 ct 5925 -297 5915 -299 5904 -299 ct 5892 -299 5881 -297 5872 -292 ct 
5862 -288 5854 -281 5847 -272 ct 5841 -264 5835 -253 5832 -240 ct 5828 -227 5826 -212 5826 -195 ct 
5826 0 l  5771 0 l  p ef
6388 -170 m  6388 -144 6386 -121 6382 -99 ct 6378 -78 6371 -59 6362 -43 ct 6352 -28 6339 -16 6324 -7 ct 
6308 2 6288 6 6265 6 ct 6241 6 6220 2 6202 -7 ct 6184 -17 6170 -31 6161 -52 ct 
6159 -52 l  6160 -52 6160 -50 6160 -47 ct 6160 -43 6160 -39 6160 -34 ct 6160 -29 6160 -24 6160 -17 ct 
6161 -11 6161 -5 6161 1 ct 6161 132 l  6105 132 l  6105 -267 l  6105 -275 6105 -283 6105 -290 ct 
6105 -298 6104 -305 6104 -311 ct 6104 -317 6104 -322 6104 -326 ct 6103 -331 6103 -334 6103 -336 ct 
6157 -336 l  6157 -335 6157 -333 6158 -329 ct 6158 -326 6158 -321 6159 -316 ct 
6159 -311 6159 -305 6160 -299 ct 6160 -293 6160 -287 6160 -282 ct 6161 -282 l 
6166 -293 6172 -302 6179 -310 ct 6186 -317 6193 -323 6202 -328 ct 6210 -333 6219 -337 6230 -339 ct 
6240 -341 6252 -342 6265 -342 ct 6288 -342 6308 -338 6324 -330 ct 6339 -321 6352 -310 6362 -295 ct 
6371 -280 6378 -261 6382 -240 ct 6386 -219 6388 -195 6388 -170 ct p
6330 -168 m  6330 -189 6329 -207 6326 -224 ct 6324 -240 6319 -253 6313 -265 ct 
6307 -276 6299 -284 6289 -290 ct 6279 -296 6266 -299 6251 -299 ct 6238 -299 6227 -297 6216 -294 ct 
6205 -290 6195 -283 6187 -273 ct 6179 -263 6172 -250 6168 -232 ct 6163 -215 6161 -192 6161 -164 ct 
6161 -140 6163 -120 6166 -104 ct 6170 -87 6176 -74 6184 -64 ct 6191 -53 6201 -46 6212 -42 ct 
6223 -37 6236 -35 6250 -35 ct 6266 -35 6279 -38 6289 -44 ct 6299 -50 6307 -59 6313 -70 ct 
6319 -82 6324 -95 6326 -112 ct 6329 -128 6330 -147 6330 -168 ct p ef
6511 -336 m  6511 -123 l  6511 -107 6513 -93 6515 -82 ct 6517 -71 6521 -62 6527 -56 ct 
6532 -49 6539 -44 6548 -41 ct 6557 -39 6567 -37 6581 -37 ct 6594 -37 6606 -39 6616 -44 ct 
6627 -49 6636 -55 6644 -64 ct 6651 -73 6657 -84 6661 -97 ct 6665 -110 6667 -125 6667 -141 ct 
6667 -336 l  6723 -336 l  6723 -72 l  6723 -65 6723 -57 6723 -50 ct 6723 -42 6724 -35 6724 -28 ct 
6724 -21 6724 -15 6724 -10 ct 6725 -5 6725 -2 6725 0 ct 6672 0 l  6672 -1 6672 -4 6672 -9 ct 
6671 -13 6671 -18 6671 -24 ct 6671 -30 6670 -36 6670 -42 ct 6670 -48 6670 -53 6670 -58 ct 
6669 -58 l  6664 -48 6658 -39 6651 -31 ct 6645 -23 6637 -17 6629 -11 ct 6620 -6 6611 -2 6600 2 ct 
6589 4 6576 6 6562 6 ct 6543 6 6527 4 6514 -1 ct 6500 -5 6489 -12 6480 -22 ct 6472 -31 6465 -44 6461 -59 ct 
6457 -73 6455 -91 6455 -112 ct 6455 -336 l  6511 -336 l  p ef
6937 -2 m  6928 0 6920 2 6911 3 ct 6902 4 6892 5 6880 5 ct 6836 5 6813 -20 6813 -71 ct 
6813 -295 l  6775 -295 l  6775 -336 l  6816 -336 l  6832 -411 l  6869 -411 l 
6869 -336 l  6931 -336 l  6931 -295 l  6869 -295 l  6869 -83 l  6869 -67 6872 -56 6877 -49 ct 
6882 -43 6892 -39 6905 -39 ct 6910 -39 6915 -40 6920 -41 ct 6925 -41 6931 -42 6937 -44 ct 
6937 -2 l  p ef
7071 6 m  7038 6 7012 -3 6995 -21 ct 6978 -39 6970 -63 6970 -94 ct 6970 -117 6974 -135 6983 -149 ct 
6991 -163 7002 -174 7015 -183 ct 7029 -191 7044 -196 7062 -199 ct 7079 -203 7097 -204 7115 -204 ct 
7190 -204 l  7190 -223 l  7190 -237 7189 -248 7186 -258 ct 7183 -268 7178 -276 7172 -282 ct 
7166 -288 7159 -292 7150 -295 ct 7141 -298 7130 -299 7118 -299 ct 7107 -299 7098 -299 7089 -297 ct 
7080 -296 7073 -293 7066 -289 ct 7060 -285 7055 -279 7051 -272 ct 7047 -265 7044 -257 7043 -246 ct 
6985 -251 l  6987 -265 6991 -277 6997 -288 ct 7002 -299 7011 -309 7021 -317 ct 
7032 -325 7045 -331 7061 -335 ct 7077 -340 7097 -342 7119 -342 ct 7162 -342 7193 -332 7215 -313 ct 
7236 -294 7247 -266 7247 -229 ct 7247 -85 l  7247 -68 7249 -55 7253 -47 ct 7257 -39 7266 -35 7278 -35 ct 
7281 -35 7284 -35 7287 -35 ct 7290 -36 7293 -36 7296 -37 ct 7296 -2 l  7289 0 7282 1 7275 2 ct 
7268 3 7261 3 7253 3 ct 7243 3 7233 2 7226 -1 ct 7218 -4 7212 -8 7207 -14 ct 7203 -20 7199 -27 7197 -35 ct 
7194 -43 7193 -53 7192 -64 ct 7190 -64 l  7184 -54 7178 -44 7170 -35 ct 7163 -27 7155 -19 7145 -13 ct 
7136 -7 7125 -2 7113 1 ct 7101 4 7087 6 7071 6 ct p
7084 -36 m  7102 -36 7117 -39 7131 -46 ct 7144 -52 7155 -60 7164 -70 ct 7173 -80 7179 -91 7184 -103 ct 
7188 -115 7190 -127 7190 -138 ct 7190 -165 l  7129 -165 l  7115 -165 7102 -164 7090 -162 ct 
7078 -161 7067 -157 7058 -152 ct 7048 -147 7041 -139 7036 -130 ct 7030 -121 7027 -108 7027 -93 ct 
7027 -75 7032 -61 7042 -51 ct 7052 -41 7066 -36 7084 -36 ct p ef
7466 -2 m  7457 0 7449 2 7440 3 ct 7431 4 7421 5 7409 5 ct 7365 5 7342 -20 7342 -71 ct 
7342 -295 l  7304 -295 l  7304 -336 l  7345 -336 l  7361 -411 l  7398 -411 l 
7398 -336 l  7460 -336 l  7460 -295 l  7398 -295 l  7398 -83 l  7398 -67 7401 -56 7406 -49 ct 
7411 -43 7421 -39 7434 -39 ct 7439 -39 7444 -40 7449 -41 ct 7454 -41 7460 -42 7466 -44 ct 
7466 -2 l  p ef
7514 -407 m  7514 -460 l  7570 -460 l  7570 -407 l  7514 -407 l  p
7514 1 m  7514 -335 l  7570 -335 l  7570 1 l  7514 1 l  p ef
7938 -168 m  7938 -110 7926 -66 7900 -37 ct 7874 -8 7836 6 7787 6 ct 7764 6 7743 2 7725 -5 ct 
7706 -12 7691 -22 7678 -37 ct 7665 -51 7655 -69 7649 -91 ct 7642 -113 7639 -139 7639 -168 ct 
7639 -284 7689 -342 7789 -342 ct 7815 -342 7838 -339 7856 -331 ct 7875 -324 7891 -313 7903 -299 ct 
7915 -284 7924 -266 7930 -245 ct 7936 -223 7938 -197 7938 -168 ct p
7880 -168 m  7880 -195 7878 -216 7874 -233 ct 7870 -250 7864 -264 7856 -274 ct 
7848 -284 7839 -291 7828 -295 ct 7817 -299 7804 -301 7790 -301 ct 7776 -301 7763 -299 7751 -295 ct 
7740 -290 7730 -283 7722 -273 ct 7714 -263 7708 -249 7704 -232 ct 7699 -215 7697 -194 7697 -168 ct 
7697 -142 7700 -121 7704 -104 ct 7709 -87 7715 -73 7723 -63 ct 7731 -53 7740 -46 7751 -41 ct 
7762 -37 7774 -35 7787 -35 ct 7801 -35 7814 -37 7825 -41 ct 7837 -45 7847 -52 7855 -63 ct 
7863 -73 7869 -86 7873 -104 ct 7878 -121 7880 -142 7880 -168 ct p ef
8219 0 m  8219 -213 l  8219 -229 8218 -243 8215 -254 ct 8213 -265 8209 -274 8204 -280 ct 
8198 -287 8191 -292 8182 -295 ct 8174 -297 8163 -299 8150 -299 ct 8136 -299 8124 -297 8114 -292 ct 
8103 -287 8094 -281 8087 -272 ct 8079 -263 8073 -252 8069 -239 ct 8065 -226 8063 -211 8063 -195 ct 
8063 0 l  8007 0 l  8007 -264 l  8007 -271 8007 -279 8007 -286 ct 8007 -294 8007 -301 8006 -308 ct 
8006 -315 8006 -321 8006 -326 ct 8006 -331 8005 -334 8005 -336 ct 8058 -336 l 
8058 -335 8058 -332 8059 -327 ct 8059 -323 8059 -318 8059 -312 ct 8060 -306 8060 -300 8060 -294 ct 
8060 -288 8060 -283 8060 -278 ct 8061 -278 l  8067 -288 8073 -297 8079 -305 ct 
8085 -313 8093 -319 8101 -325 ct 8110 -330 8119 -335 8130 -338 ct 8141 -341 8154 -342 8169 -342 ct 
8187 -342 8203 -340 8217 -335 ct 8230 -331 8241 -324 8250 -314 ct 8258 -305 8265 -292 8269 -277 ct 
8273 -262 8275 -244 8275 -224 ct 8275 0 l  8219 0 l  p ef
pom

pum
6709 5870 t
469 0 m  398 0 l  322 -278 l  320 -286 317 -295 315 -306 ct 312 -317 310 -327 308 -337 ct 
305 -348 303 -360 300 -371 ct 298 -359 295 -348 293 -336 ct 290 -326 288 -316 286 -306 ct 
283 -295 281 -286 278 -278 ct 202 0 l  131 0 l  3 -438 l  65 -438 l  143 -159 l 
146 -146 150 -133 153 -121 ct 156 -108 159 -96 161 -86 ct 164 -74 166 -63 169 -52 ct 
172 -66 175 -80 178 -94 ct 180 -100 181 -106 183 -113 ct 184 -119 186 -125 187 -132 ct 
189 -138 190 -144 192 -149 ct 193 -155 195 -160 196 -165 ct 272 -438 l  329 -438 l 
405 -165 l  406 -160 407 -155 409 -149 ct 410 -144 412 -138 413 -132 ct 415 -126 417 -119 418 -113 ct 
419 -106 421 -100 422 -95 ct 426 -81 429 -66 432 -52 ct 432 -52 433 -56 435 -63 ct 
436 -70 438 -79 441 -90 ct 443 -100 446 -112 449 -125 ct 452 -137 455 -149 458 -159 ct 
535 -438 l  597 -438 l  469 0 l  p ef
632 0 m  632 -258 l  632 -265 632 -272 632 -279 ct 632 -287 632 -294 631 -300 ct 
631 -307 631 -314 631 -320 ct 631 -326 630 -331 630 -336 ct 683 -336 l  683 -331 683 -326 684 -320 ct 
684 -313 684 -307 685 -301 ct 685 -294 685 -288 685 -282 ct 685 -276 685 -271 685 -267 ct 
687 -267 l  691 -280 695 -291 699 -301 ct 704 -310 709 -318 715 -324 ct 721 -330 728 -335 736 -338 ct 
744 -341 755 -342 766 -342 ct 771 -342 775 -342 779 -341 ct 783 -340 787 -340 789 -339 ct 
789 -288 l  785 -289 781 -290 776 -290 ct 771 -291 765 -291 759 -291 ct 746 -291 735 -288 726 -282 ct 
717 -276 710 -268 704 -258 ct 699 -248 695 -236 692 -221 ct 689 -207 688 -192 688 -175 ct 
688 0 l  632 0 l  p ef
842 -407 m  842 -460 l  898 -460 l  898 -407 l  842 -407 l  p
842 1 m  842 -335 l  898 -335 l  898 1 l  842 1 l  p ef
1112 -2 m  1103 0 1095 2 1086 3 ct 1077 4 1067 5 1055 5 ct 1011 5 988 -20 988 -71 ct 
988 -295 l  950 -295 l  950 -336 l  991 -336 l  1007 -411 l  1044 -411 l 
1044 -336 l  1106 -336 l  1106 -295 l  1044 -295 l  1044 -83 l  1044 -67 1047 -56 1052 -49 ct 
1057 -43 1067 -39 1080 -39 ct 1085 -39 1090 -40 1095 -41 ct 1100 -41 1106 -42 1112 -44 ct 
1112 -2 l  p ef
1204 -156 m  1204 -139 1205 -122 1209 -108 ct 1213 -93 1218 -80 1226 -70 ct 
1233 -59 1243 -51 1255 -45 ct 1267 -39 1281 -36 1297 -36 ct 1321 -36 1341 -41 1355 -50 ct 
1370 -60 1380 -72 1385 -87 ct 1434 -73 l  1430 -64 1426 -55 1419 -45 ct 1413 -36 1405 -27 1394 -20 ct 
1383 -12 1370 -6 1354 -1 ct 1339 4 1320 6 1297 6 ct 1248 6 1210 -9 1184 -38 ct 
1158 -68 1145 -112 1145 -170 ct 1145 -202 1149 -228 1157 -250 ct 1165 -272 1175 -290 1189 -303 ct 
1203 -317 1219 -327 1237 -333 ct 1255 -339 1274 -342 1295 -342 ct 1323 -342 1347 -338 1366 -329 ct 
1385 -320 1400 -307 1411 -291 ct 1423 -275 1431 -256 1436 -234 ct 1441 -212 1443 -189 1443 -164 ct 
1443 -156 l  1204 -156 l  p
1385 -199 m  1382 -234 1373 -260 1358 -277 ct 1343 -293 1322 -301 1294 -301 ct 
1285 -301 1275 -300 1265 -296 ct 1255 -293 1245 -288 1236 -280 ct 1228 -273 1220 -262 1214 -249 ct 
1208 -236 1205 -219 1204 -199 ct 1385 -199 l  p ef
pom
pum
6264 6581 t
361 -1 m  247 -182 l  111 -182 l  111 -1 l  52 -1 l  52 -437 l  258 -437 l 
282 -437 304 -435 324 -429 ct 343 -423 359 -415 372 -404 ct 385 -394 395 -380 402 -365 ct 
408 -349 412 -332 412 -313 ct 412 -299 410 -285 406 -272 ct 402 -258 395 -246 387 -235 ct 
378 -224 367 -214 353 -206 ct 340 -198 324 -192 305 -189 ct 429 -1 l  361 -1 l 
p
352 -312 m  352 -325 350 -337 345 -346 ct 341 -356 334 -364 326 -371 ct 317 -377 306 -382 294 -385 ct 
282 -388 267 -390 252 -390 ct 111 -390 l  111 -229 l  254 -229 l  271 -229 286 -231 298 -235 ct 
311 -239 321 -245 329 -253 ct 337 -260 343 -269 346 -279 ct 350 -289 352 -300 352 -312 ct 
p ef
543 -156 m  543 -139 544 -122 548 -108 ct 552 -93 557 -80 565 -70 ct 572 -59 582 -51 594 -45 ct 
606 -39 620 -36 636 -36 ct 660 -36 680 -41 694 -50 ct 709 -60 719 -72 724 -87 ct 
773 -73 l  769 -64 765 -55 758 -45 ct 752 -36 744 -27 733 -20 ct 722 -12 709 -6 693 -1 ct 
678 4 659 6 636 6 ct 587 6 549 -9 523 -38 ct 497 -68 484 -112 484 -170 ct 484 -202 488 -228 496 -250 ct 
504 -272 514 -290 528 -303 ct 542 -317 558 -327 576 -333 ct 594 -339 613 -342 634 -342 ct 
662 -342 686 -338 705 -329 ct 724 -320 739 -307 750 -291 ct 762 -275 770 -256 775 -234 ct 
780 -212 782 -189 782 -164 ct 782 -156 l  543 -156 l  p
724 -199 m  721 -234 712 -260 697 -277 ct 682 -293 661 -301 633 -301 ct 624 -301 614 -300 604 -296 ct 
594 -293 584 -288 575 -280 ct 567 -273 559 -262 553 -249 ct 547 -236 544 -219 543 -199 ct 
724 -199 l  p ef
959 6 m  916 6 885 -8 865 -37 ct 846 -66 836 -109 836 -166 ct 836 -225 846 -269 866 -298 ct 
887 -327 918 -342 959 -342 ct 973 -342 985 -341 996 -338 ct 1006 -336 1016 -332 1024 -327 ct 
1033 -322 1040 -316 1046 -309 ct 1053 -302 1058 -293 1064 -284 ct 1064 -284 l 
1064 -289 1064 -295 1065 -301 ct 1065 -307 1065 -313 1066 -319 ct 1066 -324 1066 -329 1067 -333 ct 
1067 -337 1067 -339 1068 -340 ct 1122 -340 l  1121 -337 1121 -327 1120 -312 ct 
1120 -298 1119 -276 1119 -248 ct 1119 132 l  1064 132 l  1064 -4 l  1064 -10 1064 -15 1064 -21 ct 
1064 -27 1064 -32 1064 -38 ct 1064 -43 1065 -49 1065 -55 ct 1064 -55 l  1059 -45 1053 -36 1046 -28 ct 
1040 -20 1032 -14 1024 -9 ct 1015 -4 1006 0 995 3 ct 985 5 973 6 959 6 ct p
1064 -172 m  1064 -196 1061 -217 1057 -233 ct 1053 -250 1047 -263 1039 -273 ct 
1031 -283 1022 -290 1011 -294 ct 1000 -299 988 -301 974 -301 ct 960 -301 948 -298 937 -293 ct 
927 -288 919 -279 913 -269 ct 906 -258 902 -244 899 -227 ct 896 -211 894 -191 894 -168 ct 
894 -146 896 -126 898 -110 ct 901 -93 906 -80 912 -69 ct 918 -58 927 -50 937 -45 ct 
947 -40 959 -37 973 -37 ct 986 -37 997 -39 1008 -43 ct 1019 -47 1029 -53 1037 -64 ct 
1045 -74 1052 -87 1056 -105 ct 1061 -122 1064 -145 1064 -172 ct p ef
1257 -336 m  1257 -123 l  1257 -107 1259 -93 1261 -82 ct 1263 -71 1267 -62 1273 -56 ct 
1278 -49 1285 -44 1294 -41 ct 1303 -39 1313 -37 1327 -37 ct 1340 -37 1352 -39 1362 -44 ct 
1373 -49 1382 -55 1390 -64 ct 1397 -73 1403 -84 1407 -97 ct 1411 -110 1413 -125 1413 -141 ct 
1413 -336 l  1469 -336 l  1469 -72 l  1469 -65 1469 -57 1469 -50 ct 1469 -42 1470 -35 1470 -28 ct 
1470 -21 1470 -15 1470 -10 ct 1471 -5 1471 -2 1471 0 ct 1418 0 l  1418 -1 1418 -4 1418 -9 ct 
1417 -13 1417 -18 1417 -24 ct 1417 -30 1416 -36 1416 -42 ct 1416 -48 1416 -53 1416 -58 ct 
1415 -58 l  1410 -48 1404 -39 1397 -31 ct 1391 -23 1383 -17 1375 -11 ct 1366 -6 1357 -2 1346 2 ct 
1335 4 1322 6 1308 6 ct 1289 6 1273 4 1260 -1 ct 1246 -5 1235 -12 1226 -22 ct 1218 -31 1211 -44 1207 -59 ct 
1203 -73 1201 -91 1201 -112 ct 1201 -336 l  1257 -336 l  p ef
1597 -156 m  1597 -139 1598 -122 1602 -108 ct 1606 -93 1611 -80 1619 -70 ct 
1626 -59 1636 -51 1648 -45 ct 1660 -39 1674 -36 1690 -36 ct 1714 -36 1734 -41 1748 -50 ct 
1763 -60 1773 -72 1778 -87 ct 1827 -73 l  1823 -64 1819 -55 1812 -45 ct 1806 -36 1798 -27 1787 -20 ct 
1776 -12 1763 -6 1747 -1 ct 1732 4 1713 6 1690 6 ct 1641 6 1603 -9 1577 -38 ct 
1551 -68 1538 -112 1538 -170 ct 1538 -202 1542 -228 1550 -250 ct 1558 -272 1568 -290 1582 -303 ct 
1596 -317 1612 -327 1630 -333 ct 1648 -339 1667 -342 1688 -342 ct 1716 -342 1740 -338 1759 -329 ct 
1778 -320 1793 -307 1804 -291 ct 1816 -275 1824 -256 1829 -234 ct 1834 -212 1836 -189 1836 -164 ct 
1836 -156 l  1597 -156 l  p
1778 -199 m  1775 -234 1766 -260 1751 -277 ct 1736 -293 1715 -301 1687 -301 ct 
1678 -301 1668 -300 1658 -296 ct 1648 -293 1638 -288 1629 -280 ct 1621 -273 1613 -262 1607 -249 ct 
1601 -236 1598 -219 1597 -199 ct 1778 -199 l  p ef
2158 -93 m  2158 -77 2155 -63 2148 -51 ct 2142 -39 2133 -28 2122 -20 ct 2110 -12 2096 -5 2079 -1 ct 
2062 4 2043 6 2021 6 ct 2002 6 1984 4 1969 2 ct 1953 -2 1940 -6 1928 -13 ct 1916 -20 1906 -28 1898 -39 ct 
1890 -50 1884 -63 1881 -79 ct 1930 -89 l  1935 -71 1945 -57 1959 -49 ct 1974 -41 1995 -37 2021 -37 ct 
2033 -37 2044 -37 2054 -39 ct 2064 -41 2073 -44 2080 -48 ct 2088 -52 2093 -57 2097 -64 ct 
2101 -70 2103 -79 2103 -89 ct 2103 -99 2101 -107 2096 -114 ct 2091 -120 2085 -126 2076 -130 ct 
2068 -134 2058 -138 2045 -141 ct 2033 -144 2020 -148 2006 -152 ct 1992 -155 1979 -159 1966 -164 ct 
1952 -168 1940 -174 1930 -181 ct 1919 -188 1911 -197 1904 -207 ct 1897 -218 1894 -231 1894 -247 ct 
1894 -278 1905 -301 1927 -317 ct 1949 -333 1980 -341 2022 -341 ct 2059 -341 2088 -335 2110 -322 ct 
2132 -309 2146 -288 2152 -259 ct 2101 -253 l  2100 -261 2096 -269 2091 -275 ct 
2086 -281 2080 -285 2073 -289 ct 2066 -293 2058 -295 2050 -297 ct 2041 -298 2032 -299 2022 -299 ct 
1997 -299 1978 -295 1966 -288 ct 1954 -280 1948 -268 1948 -253 ct 1948 -244 1950 -236 1955 -230 ct 
1959 -224 1966 -219 1974 -215 ct 1981 -211 1991 -208 2002 -205 ct 2013 -202 2026 -199 2039 -195 ct 
2048 -193 2057 -191 2066 -188 ct 2076 -186 2085 -182 2094 -179 ct 2102 -175 2111 -171 2118 -166 ct 
2126 -161 2133 -155 2139 -149 ct 2144 -142 2149 -134 2152 -125 ct 2156 -116 2158 -105 2158 -93 ct 
p ef
2352 -2 m  2343 0 2335 2 2326 3 ct 2317 4 2307 5 2295 5 ct 2251 5 2228 -20 2228 -71 ct 
2228 -295 l  2190 -295 l  2190 -336 l  2231 -336 l  2247 -411 l  2284 -411 l 
2284 -336 l  2346 -336 l  2346 -295 l  2284 -295 l  2284 -83 l  2284 -67 2287 -56 2292 -49 ct 
2297 -43 2307 -39 2320 -39 ct 2325 -39 2330 -40 2335 -41 ct 2340 -41 2346 -42 2352 -44 ct 
2352 -2 l  p ef
pom
0.003 0.003 0.003 c 9204 5318 m  9204 6506 l  9128 6506 l  9052 6506 l  9052 5318 l 
9128 5318 l  9204 5318 l  p ef
9129 6842 m  9392 6422 l  8865 6422 l  9129 6842 l  p ef
12655 5341 m  12655 6529 l  12579 6529 l  12503 6529 l  12503 5341 l  12579 5341 l 
12655 5341 l  p ef
12580 6865 m  12843 6445 l  12316 6445 l  12580 6865 l  p ef

pum
13546 5870 t
0.230 0.226 0.210 c 361 -1 m  247 -182 l  111 -182 l  111 -1 l  52 -1 l 
52 -437 l  258 -437 l  282 -437 304 -435 324 -429 ct 343 -423 359 -415 372 -404 ct 
385 -394 395 -380 402 -365 ct 408 -349 412 -332 412 -313 ct 412 -299 410 -285 406 -272 ct 
402 -258 395 -246 387 -235 ct 378 -224 367 -214 353 -206 ct 340 -198 324 -192 305 -189 ct 
429 -1 l  361 -1 l  p
352 -312 m  352 -325 350 -337 345 -346 ct 341 -356 334 -364 326 -371 ct 317 -377 306 -382 294 -385 ct 
282 -388 267 -390 252 -390 ct 111 -390 l  111 -229 l  254 -229 l  271 -229 286 -231 298 -235 ct 
311 -239 321 -245 329 -253 ct 337 -260 343 -269 346 -279 ct 350 -289 352 -300 352 -312 ct 
p ef
543 -156 m  543 -139 544 -122 548 -108 ct 552 -93 557 -80 565 -70 ct 572 -59 582 -51 594 -45 ct 
606 -39 620 -36 636 -36 ct 660 -36 680 -41 694 -50 ct 709 -60 719 -72 724 -87 ct 
773 -73 l  769 -64 765 -55 758 -45 ct 752 -36 744 -27 733 -20 ct 722 -12 709 -6 693 -1 ct 
678 4 659 6 636 6 ct 587 6 549 -9 523 -38 ct 497 -68 484 -112 484 -170 ct 484 -202 488 -228 496 -250 ct 
504 -272 514 -290 528 -303 ct 542 -317 558 -327 576 -333 ct 594 -339 613 -342 634 -342 ct 
662 -342 686 -338 705 -329 ct 724 -320 739 -307 750 -291 ct 762 -275 770 -256 775 -234 ct 
780 -212 782 -189 782 -164 ct 782 -156 l  543 -156 l  p
724 -199 m  721 -234 712 -260 697 -277 ct 682 -293 661 -301 633 -301 ct 624 -301 614 -300 604 -296 ct 
594 -293 584 -288 575 -280 ct 567 -273 559 -262 553 -249 ct 547 -236 544 -219 543 -199 ct 
724 -199 l  p ef
937 6 m  904 6 878 -3 861 -21 ct 844 -39 836 -63 836 -94 ct 836 -117 840 -135 849 -149 ct 
857 -163 868 -174 881 -183 ct 895 -191 910 -196 928 -199 ct 945 -203 963 -204 981 -204 ct 
1056 -204 l  1056 -223 l  1056 -237 1055 -248 1052 -258 ct 1049 -268 1044 -276 1038 -282 ct 
1032 -288 1025 -292 1016 -295 ct 1007 -298 996 -299 984 -299 ct 973 -299 964 -299 955 -297 ct 
946 -296 939 -293 932 -289 ct 926 -285 921 -279 917 -272 ct 913 -265 910 -257 909 -246 ct 
851 -251 l  853 -265 857 -277 863 -288 ct 868 -299 877 -309 887 -317 ct 898 -325 911 -331 927 -335 ct 
943 -340 963 -342 985 -342 ct 1028 -342 1059 -332 1081 -313 ct 1102 -294 1113 -266 1113 -229 ct 
1113 -85 l  1113 -68 1115 -55 1119 -47 ct 1123 -39 1132 -35 1144 -35 ct 1147 -35 1150 -35 1153 -35 ct 
1156 -36 1159 -36 1162 -37 ct 1162 -2 l  1155 0 1148 1 1141 2 ct 1134 3 1127 3 1119 3 ct 
1109 3 1099 2 1092 -1 ct 1084 -4 1078 -8 1073 -14 ct 1069 -20 1065 -27 1063 -35 ct 
1060 -43 1059 -53 1058 -64 ct 1056 -64 l  1050 -54 1044 -44 1036 -35 ct 1029 -27 1021 -19 1011 -13 ct 
1002 -7 991 -2 979 1 ct 967 4 953 6 937 6 ct p
950 -36 m  968 -36 983 -39 997 -46 ct 1010 -52 1021 -60 1030 -70 ct 1039 -80 1045 -91 1050 -103 ct 
1054 -115 1056 -127 1056 -138 ct 1056 -165 l  995 -165 l  981 -165 968 -164 956 -162 ct 
944 -161 933 -157 924 -152 ct 914 -147 907 -139 902 -130 ct 896 -121 893 -108 893 -93 ct 
893 -75 898 -61 908 -51 ct 918 -41 932 -36 950 -36 ct p ef
1415 -53 m  1404 -32 1391 -16 1373 -7 ct 1356 2 1335 7 1310 7 ct 1268 7 1237 -7 1217 -36 ct 
1197 -64 1187 -108 1187 -166 ct 1187 -283 1228 -341 1310 -341 ct 1335 -341 1357 -337 1374 -327 ct 
1391 -318 1404 -303 1415 -283 ct 1415 -283 l  1415 -285 1415 -288 1415 -293 ct 
1415 -297 1415 -302 1415 -307 ct 1415 -312 1415 -316 1415 -321 ct 1415 -325 1415 -328 1415 -330 ct 
1415 -460 l  1470 -460 l  1470 -69 l  1470 -61 1470 -53 1471 -45 ct 1471 -38 1471 -31 1471 -25 ct 
1471 -19 1471 -13 1472 -9 ct 1472 -4 1472 -1 1472 1 ct 1419 1 l  1418 -2 1418 -4 1418 -8 ct 
1418 -12 1417 -16 1417 -21 ct 1417 -26 1416 -32 1416 -37 ct 1416 -42 1416 -48 1416 -53 ct 
1415 -53 l  p
1245 -167 m  1245 -144 1247 -124 1250 -108 ct 1253 -91 1257 -78 1264 -67 ct 
1270 -56 1278 -49 1288 -44 ct 1298 -39 1310 -36 1324 -36 ct 1339 -36 1352 -39 1363 -43 ct 
1375 -48 1384 -56 1391 -66 ct 1399 -77 1405 -91 1409 -108 ct 1413 -125 1415 -146 1415 -171 ct 
1415 -195 1413 -215 1409 -232 ct 1405 -248 1399 -261 1391 -271 ct 1384 -282 1374 -289 1363 -293 ct 
1352 -298 1339 -300 1325 -300 ct 1311 -300 1300 -298 1290 -293 ct 1280 -288 1271 -280 1265 -270 ct 
1258 -259 1253 -246 1250 -229 ct 1247 -212 1245 -191 1245 -167 ct p ef
pom
pum
13122 6581 t
361 -1 m  247 -182 l  111 -182 l  111 -1 l  52 -1 l  52 -437 l  258 -437 l 
282 -437 304 -435 324 -429 ct 343 -423 359 -415 372 -404 ct 385 -394 395 -380 402 -365 ct 
408 -349 412 -332 412 -313 ct 412 -299 410 -285 406 -272 ct 402 -258 395 -246 387 -235 ct 
378 -224 367 -214 353 -206 ct 340 -198 324 -192 305 -189 ct 429 -1 l  361 -1 l 
p
352 -312 m  352 -325 350 -337 345 -346 ct 341 -356 334 -364 326 -371 ct 317 -377 306 -382 294 -385 ct 
282 -388 267 -390 252 -390 ct 111 -390 l  111 -229 l  254 -229 l  271 -229 286 -231 298 -235 ct 
311 -239 321 -245 329 -253 ct 337 -260 343 -269 346 -279 ct 350 -289 352 -300 352 -312 ct 
p ef
543 -156 m  543 -139 544 -122 548 -108 ct 552 -93 557 -80 565 -70 ct 572 -59 582 -51 594 -45 ct 
606 -39 620 -36 636 -36 ct 660 -36 680 -41 694 -50 ct 709 -60 719 -72 724 -87 ct 
773 -73 l  769 -64 765 -55 758 -45 ct 752 -36 744 -27 733 -20 ct 722 -12 709 -6 693 -1 ct 
678 4 659 6 636 6 ct 587 6 549 -9 523 -38 ct 497 -68 484 -112 484 -170 ct 484 -202 488 -228 496 -250 ct 
504 -272 514 -290 528 -303 ct 542 -317 558 -327 576 -333 ct 594 -339 613 -342 634 -342 ct 
662 -342 686 -338 705 -329 ct 724 -320 739 -307 750 -291 ct 762 -275 770 -256 775 -234 ct 
780 -212 782 -189 782 -164 ct 782 -156 l  543 -156 l  p
724 -199 m  721 -234 712 -260 697 -277 ct 682 -293 661 -301 633 -301 ct 624 -301 614 -300 604 -296 ct 
594 -293 584 -288 575 -280 ct 567 -273 559 -262 553 -249 ct 547 -236 544 -219 543 -199 ct 
724 -199 l  p ef
959 6 m  916 6 885 -8 865 -37 ct 846 -66 836 -109 836 -166 ct 836 -225 846 -269 866 -298 ct 
887 -327 918 -342 959 -342 ct 973 -342 985 -341 996 -338 ct 1006 -336 1016 -332 1024 -327 ct 
1033 -322 1040 -316 1046 -309 ct 1053 -302 1058 -293 1064 -284 ct 1064 -284 l 
1064 -289 1064 -295 1065 -301 ct 1065 -307 1065 -313 1066 -319 ct 1066 -324 1066 -329 1067 -333 ct 
1067 -337 1067 -339 1068 -340 ct 1122 -340 l  1121 -337 1121 -327 1120 -312 ct 
1120 -298 1119 -276 1119 -248 ct 1119 132 l  1064 132 l  1064 -4 l  1064 -10 1064 -15 1064 -21 ct 
1064 -27 1064 -32 1064 -38 ct 1064 -43 1065 -49 1065 -55 ct 1064 -55 l  1059 -45 1053 -36 1046 -28 ct 
1040 -20 1032 -14 1024 -9 ct 1015 -4 1006 0 995 3 ct 985 5 973 6 959 6 ct p
1064 -172 m  1064 -196 1061 -217 1057 -233 ct 1053 -250 1047 -263 1039 -273 ct 
1031 -283 1022 -290 1011 -294 ct 1000 -299 988 -301 974 -301 ct 960 -301 948 -298 937 -293 ct 
927 -288 919 -279 913 -269 ct 906 -258 902 -244 899 -227 ct 896 -211 894 -191 894 -168 ct 
894 -146 896 -126 898 -110 ct 901 -93 906 -80 912 -69 ct 918 -58 927 -50 937 -45 ct 
947 -40 959 -37 973 -37 ct 986 -37 997 -39 1008 -43 ct 1019 -47 1029 -53 1037 -64 ct 
1045 -74 1052 -87 1056 -105 ct 1061 -122 1064 -145 1064 -172 ct p ef
1257 -336 m  1257 -123 l  1257 -107 1259 -93 1261 -82 ct 1263 -71 1267 -62 1273 -56 ct 
1278 -49 1285 -44 1294 -41 ct 1303 -39 1313 -37 1327 -37 ct 1340 -37 1352 -39 1362 -44 ct 
1373 -49 1382 -55 1390 -64 ct 1397 -73 1403 -84 1407 -97 ct 1411 -110 1413 -125 1413 -141 ct 
1413 -336 l  1469 -336 l  1469 -72 l  1469 -65 1469 -57 1469 -50 ct 1469 -42 1470 -35 1470 -28 ct 
1470 -21 1470 -15 1470 -10 ct 1471 -5 1471 -2 1471 0 ct 1418 0 l  1418 -1 1418 -4 1418 -9 ct 
1417 -13 1417 -18 1417 -24 ct 1417 -30 1416 -36 1416 -42 ct 1416 -48 1416 -53 1416 -58 ct 
1415 -58 l  1410 -48 1404 -39 1397 -31 ct 1391 -23 1383 -17 1375 -11 ct 1366 -6 1357 -2 1346 2 ct 
1335 4 1322 6 1308 6 ct 1289 6 1273 4 1260 -1 ct 1246 -5 1235 -12 1226 -22 ct 1218 -31 1211 -44 1207 -59 ct 
1203 -73 1201 -91 1201 -112 ct 1201 -336 l  1257 -336 l  p ef
1597 -156 m  1597 -139 1598 -122 1602 -108 ct 1606 -93 1611 -80 1619 -70 ct 
1626 -59 1636 -51 1648 -45 ct 1660 -39 1674 -36 1690 -36 ct 1714 -36 1734 -41 1748 -50 ct 
1763 -60 1773 -72 1778 -87 ct 1827 -73 l  1823 -64 1819 -55 1812 -45 ct 1806 -36 1798 -27 1787 -20 ct 
1776 -12 1763 -6 1747 -1 ct 1732 4 1713 6 1690 6 ct 1641 6 1603 -9 1577 -38 ct 
1551 -68 1538 -112 1538 -170 ct 1538 -202 1542 -228 1550 -250 ct 1558 -272 1568 -290 1582 -303 ct 
1596 -317 1612 -327 1630 -333 ct 1648 -339 1667 -342 1688 -342 ct 1716 -342 1740 -338 1759 -329 ct 
1778 -320 1793 -307 1804 -291 ct 1816 -275 1824 -256 1829 -234 ct 1834 -212 1836 -189 1836 -164 ct 
1836 -156 l  1597 -156 l  p
1778 -199 m  1775 -234 1766 -260 1751 -277 ct 1736 -293 1715 -301 1687 -301 ct 
1678 -301 1668 -300 1658 -296 ct 1648 -293 1638 -288 1629 -280 ct 1621 -273 1613 -262 1607 -249 ct 
1601 -236 1598 -219 1597 -199 ct 1778 -199 l  p ef
2158 -93 m  2158 -77 2155 -63 2148 -51 ct 2142 -39 2133 -28 2122 -20 ct 2110 -12 2096 -5 2079 -1 ct 
2062 4 2043 6 2021 6 ct 2002 6 1984 4 1969 2 ct 1953 -2 1940 -6 1928 -13 ct 1916 -20 1906 -28 1898 -39 ct 
1890 -50 1884 -63 1881 -79 ct 1930 -89 l  1935 -71 1945 -57 1959 -49 ct 1974 -41 1995 -37 2021 -37 ct 
2033 -37 2044 -37 2054 -39 ct 2064 -41 2073 -44 2080 -48 ct 2088 -52 2093 -57 2097 -64 ct 
2101 -70 2103 -79 2103 -89 ct 2103 -99 2101 -107 2096 -114 ct 2091 -120 2085 -126 2076 -130 ct 
2068 -134 2058 -138 2045 -141 ct 2033 -144 2020 -148 2006 -152 ct 1992 -155 1979 -159 1966 -164 ct 
1952 -168 1940 -174 1930 -181 ct 1919 -188 1911 -197 1904 -207 ct 1897 -218 1894 -231 1894 -247 ct 
1894 -278 1905 -301 1927 -317 ct 1949 -333 1980 -341 2022 -341 ct 2059 -341 2088 -335 2110 -322 ct 
2132 -309 2146 -288 2152 -259 ct 2101 -253 l  2100 -261 2096 -269 2091 -275 ct 
2086 -281 2080 -285 2073 -289 ct 2066 -293 2058 -295 2050 -297 ct 2041 -298 2032 -299 2022 -299 ct 
1997 -299 1978 -295 1966 -288 ct 1954 -280 1948 -268 1948 -253 ct 1948 -244 1950 -236 1955 -230 ct 
1959 -224 1966 -219 1974 -215 ct 1981 -211 1991 -208 2002 -205 ct 2013 -202 2026 -199 2039 -195 ct 
2048 -193 2057 -191 2066 -188 ct 2076 -186 2085 -182 2094 -179 ct 2102 -175 2111 -171 2118 -166 ct 
2126 -161 2133 -155 2139 -149 ct 2144 -142 2149 -134 2152 -125 ct 2156 -116 2158 -105 2158 -93 ct 
p ef
2352 -2 m  2343 0 2335 2 2326 3 ct 2317 4 2307 5 2295 5 ct 2251 5 2228 -20 2228 -71 ct 
2228 -295 l  2190 -295 l  2190 -336 l  2231 -336 l  2247 -411 l  2284 -411 l 
2284 -336 l  2346 -336 l  2346 -295 l  2284 -295 l  2284 -83 l  2284 -67 2287 -56 2292 -49 ct 
2297 -43 2307 -39 2320 -39 ct 2325 -39 2330 -40 2335 -41 ct 2340 -41 2346 -42 2352 -44 ct 
2352 -2 l  p ef
pom
1.000 1.000 1.000 c 7095 9382 m  7383 9382 7603 9601 7603 9889 ct 7603 10177 7383 10397 7095 10397 ct 
6807 10397 6588 10177 6588 9889 ct 6588 9601 6807 9382 7095 9382 ct p
6588 9382 m  6588 9382 l  p
7605 10399 m  7605 10399 l  p ef
51 lw 0.003 0.003 0.003 c 7095 9382 m  7383 9382 7603 9601 7603 9889 ct 7603 10177 7383 10397 7095 10397 ct 
6807 10397 6588 10177 6588 9889 ct 6588 9601 6807 9382 7095 9382 ct pc
6588 9382 m  6588 9382 l  pc
7605 10399 m  7605 10399 l  pc
7172 10906 m  7172 11586 l  7096 11586 l  7020 11586 l  7020 10906 l  7096 10906 l 
7172 10906 l  p ef
7097 11922 m  7360 11502 l  6833 11502 l  7097 11922 l  p ef
9712 10906 m  9712 11586 l  9636 11586 l  9560 11586 l  9560 10906 l  9636 10906 l 
9712 10906 l  p ef
9637 11922 m  9900 11502 l  9373 11502 l  9637 11922 l  p ef
12252 10906 m  12252 11586 l  12176 11586 l  12100 11586 l  12100 10906 l 
12176 10906 l  12252 10906 l  p ef
12177 11922 m  12440 11502 l  11913 11502 l  12177 11922 l  p ef
14792 10906 m  14792 11586 l  14716 11586 l  14640 11586 l  14640 10906 l 
14716 10906 l  14792 10906 l  p ef
14717 11922 m  14980 11502 l  14453 11502 l  14717 11922 l  p ef
7172 7858 m  7172 8538 l  7096 8538 l  7020 8538 l  7020 7858 l  7096 7858 l 
7172 7858 l  p ef
7097 8874 m  7360 8454 l  6833 8454 l  7097 8874 l  p ef
9712 7858 m  9712 8538 l  9636 8538 l  9560 8538 l  9560 7858 l  9636 7858 l 
9712 7858 l  p ef
9637 8874 m  9900 8454 l  9373 8454 l  9637 8874 l  p ef
12252 7858 m  12252 8538 l  12176 8538 l  12100 8538 l  12100 7858 l  12176 7858 l 
12252 7858 l  p ef
12177 8874 m  12440 8454 l  11913 8454 l  12177 8874 l  p ef
14792 7858 m  14792 8538 l  14716 8538 l  14640 8538 l  14640 7858 l  14716 7858 l 
14792 7858 l  p ef
14717 8874 m  14980 8454 l  14453 8454 l  14717 8874 l  p ef
7095 8874 m  7671 8874 8111 9313 8111 9889 ct 8111 10465 7671 10905 7095 10905 ct 
6519 10905 6080 10465 6080 9889 ct 6080 9313 6519 8874 7095 8874 ct pc
6080 8874 m  6080 8874 l  pc
8113 10907 m  8113 10907 l  pc
0 lw 6080 9890 m  8112 9890 l  ps
7096 8874 m  7096 10906 l  ps
6378 9172 m  7814 10608 l  ps
6378 10608 m  7814 9172 l  ps
6157 10279 m  8035 9501 l  ps
6707 10829 m  7485 8951 l  ps
6707 8951 m  7485 10829 l  ps
6157 9501 m  8035 10279 l  ps
1.000 1.000 1.000 c 7098 9481 m  7331 9481 7509 9653 7509 9879 ct 7509 10105 7331 10278 7098 10278 ct 
6865 10278 6687 10105 6687 9879 ct 6687 9653 6865 9481 7098 9481 ct p
6687 9481 m  6687 9481 l  p
7511 10279 m  7511 10279 l  p ef
51 lw 0.003 0.003 0.003 c 7098 9481 m  7331 9481 7509 9653 7509 9879 ct 7509 10105 7331 10278 7098 10278 ct 
6865 10278 6687 10105 6687 9879 ct 6687 9653 6865 9481 7098 9481 ct pc
6687 9481 m  6687 9481 l  pc
7511 10279 m  7511 10279 l  pc
7096 9865 m  7364 9865 l  7364 9890 l  7364 9916 l  7096 9916 l  7096 9890 l 
7096 9865 l  p ef
7604 9890 m  7304 9702 l  7304 10078 l  7604 9890 l  p ef
1.000 1.000 1.000 c 9635 9382 m  9923 9382 10143 9601 10143 9889 ct 10143 10177 9923 10397 9635 10397 ct 
9347 10397 9128 10177 9128 9889 ct 9128 9601 9347 9382 9635 9382 ct p
9128 9382 m  9128 9382 l  p
10145 10399 m  10145 10399 l  p ef
0.003 0.003 0.003 c 9635 9382 m  9923 9382 10143 9601 10143 9889 ct 10143 10177 9923 10397 9635 10397 ct 
9347 10397 9128 10177 9128 9889 ct 9128 9601 9347 9382 9635 9382 ct pc
9128 9382 m  9128 9382 l  pc
10145 10399 m  10145 10399 l  pc
9635 8874 m  10211 8874 10651 9313 10651 9889 ct 10651 10465 10211 10905 9635 10905 ct 
9059 10905 8620 10465 8620 9889 ct 8620 9313 9059 8874 9635 8874 ct pc
8620 8874 m  8620 8874 l  pc
10653 10907 m  10653 10907 l  pc
0 lw 8620 9890 m  10652 9890 l  ps
9636 8874 m  9636 10906 l  ps
8918 9172 m  10354 10608 l  ps
8918 10608 m  10354 9172 l  ps
8697 10279 m  10575 9501 l  ps
9247 10829 m  10025 8951 l  ps
9247 8951 m  10025 10829 l  ps
8697 9501 m  10575 10279 l  ps
1.000 1.000 1.000 c 9638 9481 m  9871 9481 10049 9653 10049 9879 ct 10049 10105 9871 10278 9638 10278 ct 
9405 10278 9227 10105 9227 9879 ct 9227 9653 9405 9481 9638 9481 ct p
9227 9481 m  9227 9481 l  p
10051 10279 m  10051 10279 l  p ef
51 lw 0.003 0.003 0.003 c 9638 9481 m  9871 9481 10049 9653 10049 9879 ct 10049 10105 9871 10278 9638 10278 ct 
9405 10278 9227 10105 9227 9879 ct 9227 9653 9405 9481 9638 9481 ct pc
9227 9481 m  9227 9481 l  pc
10051 10279 m  10051 10279 l  pc
9654 9872 m  9738 9956 l  9720 9974 l  9702 9992 l  9618 9908 l  9636 9890 l 
9654 9872 l  p ef
9890 10144 m  9811 9799 l  9545 10065 l  9890 10144 l  p ef
1.000 1.000 1.000 c 12175 9382 m  12463 9382 12683 9601 12683 9889 ct 12683 10177 12463 10397 12175 10397 ct 
11887 10397 11668 10177 11668 9889 ct 11668 9601 11887 9382 12175 9382 ct p
11668 9382 m  11668 9382 l  p
12685 10399 m  12685 10399 l  p ef
0.003 0.003 0.003 c 12175 9382 m  12463 9382 12683 9601 12683 9889 ct 12683 10177 12463 10397 12175 10397 ct 
11887 10397 11668 10177 11668 9889 ct 11668 9601 11887 9382 12175 9382 ct pc
11668 9382 m  11668 9382 l  pc
12685 10399 m  12685 10399 l  pc
12175 8874 m  12751 8874 13191 9313 13191 9889 ct 13191 10465 12751 10905 12175 10905 ct 
11599 10905 11160 10465 11160 9889 ct 11160 9313 11599 8874 12175 8874 ct pc
11160 8874 m  11160 8874 l  pc
13193 10907 m  13193 10907 l  pc
0 lw 11160 9890 m  13192 9890 l  ps
12176 8874 m  12176 10906 l  ps
11458 9172 m  12894 10608 l  ps
11458 10608 m  12894 9172 l  ps
11237 10279 m  13115 9501 l  ps
11787 10829 m  12565 8951 l  ps
11787 8951 m  12565 10829 l  ps
11237 9501 m  13115 10279 l  ps
1.000 1.000 1.000 c 12178 9481 m  12411 9481 12589 9653 12589 9879 ct 12589 10105 12411 10278 12178 10278 ct 
11945 10278 11767 10105 11767 9879 ct 11767 9653 11945 9481 12178 9481 ct p
11767 9481 m  11767 9481 l  p
12591 10279 m  12591 10279 l  p ef
51 lw 0.003 0.003 0.003 c 12178 9481 m  12411 9481 12589 9653 12589 9879 ct 12589 10105 12411 10278 12178 10278 ct 
11945 10278 11767 10105 11767 9879 ct 11767 9653 11945 9481 12178 9481 ct pc
11767 9481 m  11767 9481 l  pc
12591 10279 m  12591 10279 l  pc
12158 9908 m  12074 9824 l  12092 9806 l  12110 9788 l  12194 9872 l  12176 9890 l 
12158 9908 l  p ef
11922 9636 m  12001 9981 l  12267 9715 l  11922 9636 l  p ef
1.000 1.000 1.000 c 14715 9382 m  15003 9382 15223 9601 15223 9889 ct 15223 10177 15003 10397 14715 10397 ct 
14427 10397 14208 10177 14208 9889 ct 14208 9601 14427 9382 14715 9382 ct p
14208 9382 m  14208 9382 l  p
15225 10399 m  15225 10399 l  p ef
0.003 0.003 0.003 c 14715 9382 m  15003 9382 15223 9601 15223 9889 ct 15223 10177 15003 10397 14715 10397 ct 
14427 10397 14208 10177 14208 9889 ct 14208 9601 14427 9382 14715 9382 ct pc
14208 9382 m  14208 9382 l  pc
15225 10399 m  15225 10399 l  pc
14715 8874 m  15291 8874 15731 9313 15731 9889 ct 15731 10465 15291 10905 14715 10905 ct 
14139 10905 13700 10465 13700 9889 ct 13700 9313 14139 8874 14715 8874 ct pc
13700 8874 m  13700 8874 l  pc
15733 10907 m  15733 10907 l  pc
0 lw 13700 9890 m  15732 9890 l  ps
14716 8874 m  14716 10906 l  ps
13998 9172 m  15434 10608 l  ps
13998 10608 m  15434 9172 l  ps
13777 10279 m  15655 9501 l  ps
14327 10829 m  15105 8951 l  ps
14327 8951 m  15105 10829 l  ps
13777 9501 m  15655 10279 l  ps
1.000 1.000 1.000 c 14718 9481 m  14951 9481 15129 9653 15129 9879 ct 15129 10105 14951 10278 14718 10278 ct 
14485 10278 14307 10105 14307 9879 ct 14307 9653 14485 9481 14718 9481 ct p
14307 9481 m  14307 9481 l  p
15131 10279 m  15131 10279 l  p ef
51 lw 0.003 0.003 0.003 c 14718 9481 m  14951 9481 15129 9653 15129 9879 ct 15129 10105 14951 10278 14718 10278 ct 
14485 10278 14307 10105 14307 9879 ct 14307 9653 14485 9481 14718 9481 ct pc
14307 9481 m  14307 9481 l  pc
15131 10279 m  15131 10279 l  pc
14734 9908 m  14650 9992 l  14632 9974 l  14614 9956 l  14698 9872 l  14716 9890 l 
14734 9908 l  p ef
14462 10144 m  14807 10065 l  14541 9799 l  14462 10144 l  p ef
1.000 1.000 1.000 c 6334 13701 m  6334 12080 l  6492 11922 l  7858 11922 l 
7858 13542 l  7700 13701 l  6334 13701 l  p
6334 11922 m  6334 11922 l  p
7859 13701 m  7859 13701 l  p ef
0 lw 0.003 0.003 0.003 c 6334 13701 m  6334 12080 l  6492 11922 l  7858 11922 l 
7858 13542 l  7700 13701 l  6334 13701 l  pc
6334 11922 m  6334 11922 l  pc
7859 13701 m  7859 13701 l  pc
1.000 1.000 1.000 c 6334 12080 m  6492 11922 l  7858 11922 l  7700 12080 l 
6334 12080 l  p
6334 11922 m  6334 11922 l  p
7859 13701 m  7859 13701 l  p ef
0.003 0.003 0.003 c 6334 12080 m  6492 11922 l  7858 11922 l  7700 12080 l 
6334 12080 l  pc
6334 11922 m  6334 11922 l  pc
7859 13701 m  7859 13701 l  pc
0.800 0.800 0.800 c 7700 13701 m  7700 12080 l  7858 11922 l  7858 13542 l 
7700 13701 l  p
6334 11922 m  6334 11922 l  p
7859 13701 m  7859 13701 l  p ef
0.003 0.003 0.003 c 7700 13701 m  7700 12080 l  7858 11922 l  7858 13542 l 
7700 13701 l  pc
6334 11922 m  6334 11922 l  pc
7859 13701 m  7859 13701 l  pc
1.000 1.000 1.000 c 8874 13701 m  8874 12080 l  9032 11922 l  10398 11922 l 
10398 13542 l  10240 13701 l  8874 13701 l  p
8874 11922 m  8874 11922 l  p
10399 13701 m  10399 13701 l  p ef
0.003 0.003 0.003 c 8874 13701 m  8874 12080 l  9032 11922 l  10398 11922 l 
10398 13542 l  10240 13701 l  8874 13701 l  pc
8874 11922 m  8874 11922 l  pc
10399 13701 m  10399 13701 l  pc
1.000 1.000 1.000 c 8874 12080 m  9032 11922 l  10398 11922 l  10240 12080 l 
8874 12080 l  p
8874 11922 m  8874 11922 l  p
10399 13701 m  10399 13701 l  p ef
0.003 0.003 0.003 c 8874 12080 m  9032 11922 l  10398 11922 l  10240 12080 l 
8874 12080 l  pc
8874 11922 m  8874 11922 l  pc
10399 13701 m  10399 13701 l  pc
0.800 0.800 0.800 c 10240 13701 m  10240 12080 l  10398 11922 l  10398 13542 l 
10240 13701 l  p
8874 11922 m  8874 11922 l  p
10399 13701 m  10399 13701 l  p ef
0.003 0.003 0.003 c 10240 13701 m  10240 12080 l  10398 11922 l  10398 13542 l 
10240 13701 l  pc
8874 11922 m  8874 11922 l  pc
10399 13701 m  10399 13701 l  pc
1.000 1.000 1.000 c 11414 13701 m  11414 12080 l  11572 11922 l  12938 11922 l 
12938 13542 l  12780 13701 l  11414 13701 l  p
11414 11922 m  11414 11922 l  p
12939 13701 m  12939 13701 l  p ef
0.003 0.003 0.003 c 11414 13701 m  11414 12080 l  11572 11922 l  12938 11922 l 
12938 13542 l  12780 13701 l  11414 13701 l  pc
11414 11922 m  11414 11922 l  pc
12939 13701 m  12939 13701 l  pc
1.000 1.000 1.000 c 11414 12080 m  11572 11922 l  12938 11922 l  12780 12080 l 
11414 12080 l  p
11414 11922 m  11414 11922 l  p
12939 13701 m  12939 13701 l  p ef
0.003 0.003 0.003 c 11414 12080 m  11572 11922 l  12938 11922 l  12780 12080 l 
11414 12080 l  pc
11414 11922 m  11414 11922 l  pc
12939 13701 m  12939 13701 l  pc
0.800 0.800 0.800 c 12780 13701 m  12780 12080 l  12938 11922 l  12938 13542 l 
12780 13701 l  p
11414 11922 m  11414 11922 l  p
12939 13701 m  12939 13701 l  p ef
0.003 0.003 0.003 c 12780 13701 m  12780 12080 l  12938 11922 l  12938 13542 l 
12780 13701 l  pc
11414 11922 m  11414 11922 l  pc
12939 13701 m  12939 13701 l  pc
1.000 1.000 1.000 c 13954 13701 m  13954 12080 l  14112 11922 l  15478 11922 l 
15478 13542 l  15320 13701 l  13954 13701 l  p
13954 11922 m  13954 11922 l  p
15479 13701 m  15479 13701 l  p ef
0.003 0.003 0.003 c 13954 13701 m  13954 12080 l  14112 11922 l  15478 11922 l 
15478 13542 l  15320 13701 l  13954 13701 l  pc
13954 11922 m  13954 11922 l  pc
15479 13701 m  15479 13701 l  pc
1.000 1.000 1.000 c 13954 12080 m  14112 11922 l  15478 11922 l  15320 12080 l 
13954 12080 l  p
13954 11922 m  13954 11922 l  p
15479 13701 m  15479 13701 l  p ef
0.003 0.003 0.003 c 13954 12080 m  14112 11922 l  15478 11922 l  15320 12080 l 
13954 12080 l  pc
13954 11922 m  13954 11922 l  pc
15479 13701 m  15479 13701 l  pc
0.800 0.800 0.800 c 15320 13701 m  15320 12080 l  15478 11922 l  15478 13542 l 
15320 13701 l  p
13954 11922 m  13954 11922 l  p
15479 13701 m  15479 13701 l  p ef
0.003 0.003 0.003 c 15320 13701 m  15320 12080 l  15478 11922 l  15478 13542 l 
15320 13701 l  pc
13954 11922 m  13954 11922 l  pc
15479 13701 m  15479 13701 l  pc
0 8535 t 
pom
count op_count sub {pop} repeat countdictstack dict_count sub {end} repeat b4_inc_state restore
%%PageTrailer
%%Trailer
%%EOF
