\relax 
\citation{wow,stow}
\citation{wow,stow}
\citation{wow,stow}
\@writefile{toc}{\contentsline {section}{\numberline {1}Introduction}{1}}
\newlabel{sec:intro}{{1}{1}}
\@writefile{toc}{\contentsline {section}{\numberline {2}Background and Related Works}{1}}
\newlabel{sec:back}{{2}{1}}
\@writefile{toc}{\contentsline {subsection}{\numberline {2.1}Write cache for RAID}{1}}
\newlabel{sec:write_cache}{{2.1}{1}}
\@writefile{lof}{\contentsline {figure}{\numberline {1}{\ignorespaces A RAID controller employing a write cache.}}{1}}
\newlabel{fig:write_cache}{{1}{1}}
\citation{Niijima95:IBMJournal}
\citation{msr_ssd}
\citation{the_architecture_of_a}
\citation{stow}
\citation{destage_algorithms_for_disk}
\citation{haining:2000}
\citation{wow}
\citation{stow}
\citation{gftl,rftl,Han:2006:IGC,jlee:ispass11,ykim:msst11}
\citation{ykim:msst11}
\citation{wow}
\citation{clock}
\citation{cscan}
\citation{wow}
\citation{wow}
\citation{destage_algorithms_for_disk}
\@writefile{toc}{\contentsline {subsection}{\numberline {2.2}Characteristics of Solid-state Drives}{2}}
\newlabel{sec:ssd}{{2.2}{2}}
\@writefile{toc}{\contentsline {subsection}{\numberline {2.3}Related Works}{2}}
\newlabel{sec:related}{{2.3}{2}}
\@writefile{lof}{\contentsline {figure}{\numberline {2}{\ignorespaces The baseline data structure that leverages both temporal and spatial locality, which is adopted from WOW\nobreakspace  {}\cite  {wow}. Throughout this paper, this data structure is called \textit  {write queue}.}}{2}}
\newlabel{fig:wow}{{2}{2}}
\@writefile{toc}{\contentsline {section}{\numberline {3}Write Cache Design}{2}}
\newlabel{sec:wb}{{3}{2}}
\@writefile{toc}{\contentsline {subsection}{\numberline {3.1}Baseline}{2}}
\newlabel{sec:baseline}{{3.1}{2}}
\citation{destage_algorithms_for_disk}
\citation{disksim}
\citation{msr_ssd}
\citation{jkim:pdsw:2010}
\@writefile{lof}{\contentsline {figure}{\numberline {3}{\ignorespaces The proposed write cache for an array of SSDs.}}{3}}
\newlabel{fig:proposed}{{3}{3}}
\@writefile{toc}{\contentsline {subsection}{\numberline {3.2}Proposed Design}{3}}
\newlabel{sec:proposed}{{3.2}{3}}
\@writefile{toc}{\contentsline {section}{\numberline {4}Experiments}{3}}
\newlabel{sec:expr}{{4}{3}}
\@writefile{lof}{\contentsline {figure}{\numberline {4}{\ignorespaces Comparison of average response time for $W_{hpc}$.}}{4}}
\newlabel{fig:hpc}{{4}{4}}
\@writefile{lof}{\contentsline {figure}{\numberline {5}{\ignorespaces Cumulative distribution fuction of response time for RAID5.}}{4}}
\newlabel{fig:cdf}{{5}{4}}
\@writefile{lof}{\contentsline {figure}{\numberline {6}{\ignorespaces Time-series analysis of response time.}}{4}}
\newlabel{fig:ts}{{6}{4}}
\@writefile{lof}{\contentsline {figure}{\numberline {7}{\ignorespaces Performance evaluation results of the proposed write cache.}}{4}}
\newlabel{fig:response}{{7}{4}}
\@writefile{lot}{\contentsline {table}{\numberline {1}{\ignorespaces \relax \fontsize  {9}{10pt}\selectfont  SSD model parameters.}}{4}}
\newlabel{tab:ssd_param}{{1}{4}}
\@writefile{lot}{\contentsline {table}{\numberline {2}{\ignorespaces Workload parameters}}{4}}
\newlabel{tab:workload_param}{{2}{4}}
\bibstyle{IEEEtran}
\bibdata{IEEEabrv,flash-ref}
\bibcite{wow}{1}
\bibcite{stow}{2}
\bibcite{Niijima95:IBMJournal}{3}
\bibcite{msr_ssd}{4}
\bibcite{the_architecture_of_a}{5}
\bibcite{destage_algorithms_for_disk}{6}
\bibcite{haining:2000}{7}
\bibcite{gftl}{8}
\bibcite{rftl}{9}
\bibcite{Han:2006:IGC}{10}
\bibcite{jlee:ispass11}{11}
\bibcite{ykim:msst11}{12}
\bibcite{clock}{13}
\bibcite{cscan}{14}
\bibcite{disksim}{15}
\bibcite{jkim:pdsw:2010}{16}
\@writefile{toc}{\contentsline {section}{\numberline {5}Conclusion}{5}}
\newlabel{sec:conc}{{5}{5}}
\@writefile{toc}{\contentsline {section}{References}{5}}
